%!PS-Adobe-2.0
%%Title: Canvas_5.ps ( A 4)
%%Pages: (atend)
%%Creator: ROOT Version 5.34/23
%%CreationDate: Thu Aug 27 14:52:16 2015
%%Orientation: Landscape
%%EndComments
%%BeginProlog
/s {stroke} def /l {lineto} def /m {moveto} def /t {translate} def
/r {rotate} def /rl {roll}  def /R {repeat} def
/d {rlineto} def /rm {rmoveto} def /gr {grestore} def /f {eofill} def
/c {setrgbcolor} def /black {0 setgray} def /sd {setdash} def
/cl {closepath} def /sf {scalefont setfont} def /lw {setlinewidth} def
/box {m dup 0 exch d exch 0 d 0 exch neg d cl} def
/NC{systemdict begin initclip end}def/C{NC box clip newpath}def
/bl {box s} def /bf {box f} def /Y { 0 exch d} def /X { 0 d} def 
/K {{pop pop 0 moveto} exch kshow} bind def
/ita {/ang 15 def gsave [1 0 ang dup sin exch cos div 1 0 0] concat} def 
/mp {newpath /y exch def /x exch def} def
/side {[w .77 mul w .23 mul] .385 w mul sd w 0 l currentpoint t -144 r} def
/mr {mp x y w2 0 360 arc} def /m24 {mr s} def /m20 {mr f} def
/mb {mp x y w2 add m w2 neg 0 d 0 w neg d w 0 d 0 w d cl} def
/mt {mp x y w2 add m w2 neg w neg d w 0 d cl} def
/m21 {mb f} def /m25 {mb s} def /m22 {mt f} def /m26{mt s} def
/m23 {mp x y w2 sub m w2 w d w neg 0 d cl f} def
/m27 {mp x y w2 add m w3 neg w2 neg d w3 w2 neg d w3 w2 d cl s} def
/m28 {mp x w2 sub y w2 sub w3 add m w3 0 d  0 w3 neg d w3 0 d 0 w3 d w3 0 d  0 w3 d w3 neg 0 d 0 w3 d w3 neg 0 d 0 w3 neg d w3 neg 0 d cl s } def
/m29 {mp gsave x w2 sub y w2 add w3 sub m currentpoint t 4 {side} repeat cl fill gr} def
/m30 {mp gsave x w2 sub y w2 add w3 sub m currentpoint t 4 {side} repeat cl s gr} def
/m31 {mp x y w2 sub m 0 w d x w2 sub y m w 0 d x w2 sub y w2 add m w w neg d x w2 sub y w2 sub m w w d s} def
/m32 {mp x y w2 sub m w2 w d w neg 0 d cl s} def
/m33 {mp x y w2 add m w3 neg w2 neg d w3 w2 neg d w3 w2 d cl f} def
/m34 {mp x w2 sub y w2 sub w3 add m w3 0 d  0 w3 neg d w3 0 d 0 w3 d w3 0 d  0 w3 d w3 neg 0 d 0 w3 d w3 neg 0 d 0 w3 neg d w3 neg 0 d cl f } def
/m2 {mp x y w2 sub m 0 w d x w2 sub y m w 0 d s} def
/m5 {mp x w2 sub y w2 sub m w w d x w2 sub y w2 add m w w neg d s} def
/reEncode {exch findfont dup length dict begin {1 index /FID eq  {pop pop} {def} ifelse } forall /Encoding exch def currentdict end dup /FontName get exch definefont pop } def [/Times-Bold /Times-Italic /Times-BoldItalic /Helvetica /Helvetica-Oblique
 /Helvetica-Bold /Helvetica-BoldOblique /Courier /Courier-Oblique /Courier-Bold /Courier-BoldOblique /Times-Roman /AvantGarde-Book /AvantGarde-BookOblique /AvantGarde-Demi /AvantGarde-DemiOblique /Bookman-Demi /Bookman-DemiItalic /Bookman-Light
 /Bookman-LightItalic /Helvetica-Narrow /Helvetica-Narrow-Bold /Helvetica-Narrow-BoldOblique /Helvetica-Narrow-Oblique /NewCenturySchlbk-Roman /NewCenturySchlbk-Bold /NewCenturySchlbk-BoldItalic /NewCenturySchlbk-Italic /Palatino-Bold
 /Palatino-BoldItalic /Palatino-Italic /Palatino-Roman ] {ISOLatin1Encoding reEncode } forall/Zone {/iy exch def /ix exch def  ix 1 sub  3144 mul  1 iy sub  2224 mul t} def
%%EndProlog
%%BeginSetup
%%EndSetup
newpath  gsave  90 r 0 -594 t  28 20 t .25 .25 scale  gsave 
%%Page: 1 1
 gsave  gsave 
 1 1 Zone
 gsave  0 0 t black[  ] 0 sd 3 lw 1 1 1 c 2948 1962 0 0 bf black 1 1 1 c 2358 1570 295 196 bf black 2358 1570 295 196 bl 1 1 1 c 2358 1570 295 196 bf black 2358 1570 295 196 bl 1 1 1 c black 295 196 m 886 X 7 Y 9 X 21 Y 8 X -7 Y 17 X 22 Y 16 X 56 Y 9
 X -14 Y 8 X 21 Y 9 X 42 Y 8 X 57 Y 8 X -50 Y 9 X 141 Y 8 X 148 Y 8 X 71 Y 9 X -42 Y 8 X 261 Y 8 X -22 Y 9 X 184 Y 8 X 84 Y 9 X 57 Y 8 X 282 Y 8 X -162 Y 9 X 246 Y 8 X 92 Y 8 X -127 Y 9 X 42 Y 8 X -183 Y 8 X 14 Y 9 X 212 Y 8 X -318 Y 9 X -35 Y 8 X
 -247 Y 8 X 57 Y 9 X -64 Y 8 X -119 Y 8 X -92 Y 9 X -35 Y 8 X -113 Y 8 X -85 Y 9 X -70 Y 8 X -36 Y 9 X -105 Y 8 X -36 Y 8 X 29 Y 9 X -85 Y 8 X -21 Y 8 X 28 Y 9 X -71 Y 8 X -21 Y 8 X 7 Y 9 X -14 Y 17 X -7 Y 8 X 7 Y 17 X -7 Y 1003 X s 1 0 0 c 6 lw 0.95
 0.95 0.95 c black 1 0 0 c 307 196 m 801 X 24 1 d 24 1 d 23 4 d 24 13 d 23 29 d 24 63 d 24 115 d 23 184 d 24 251 d 23 284 d 24 254 d 23 151 d 24 -1 d 24 -153 d 23 -255 d s 1462 1137 m 24 -284 d 23 -250 d 24 -183 d 24 -115 d 23 -62 d 24 -29 d 23 -12 d
 24 -4 d 23 -1 d 24 -1 d 920 X s 2618 196 m 23 X s black 3 lw 1 1 1 c 590 314 2299 1521 bf black 2299 1521 m 590 X s 2889 1521 m 314 Y s 2889 1835 m -590 X s 2299 1835 m -314 Y s 1 1 1 c black
 gsave  2948 1962 0 0 C 2321.94 1784.59 t 0 r /Helvetica findfont 39.4385 sf 0 0 m (tdiffhistos_0.250000_0.750000) show NC gr  2299 1756 m 590 X s
 gsave  2948 1962 0 0 C 2326.87 1693.39 t 0 r /Helvetica findfont 66.5526 sf 0 0 m (Entries ) show NC gr 
 gsave  2948 1962 0 0 C 2694.15 1693.39 t 0 r /Helvetica findfont 66.5526 sf 0 0 m ( 8040) show NC gr 
 gsave  2948 1962 0 0 C 2326.87 1614.52 t 0 r /Helvetica findfont 66.5526 sf 0 0 m (Mean  ) show NC gr 
 gsave  2948 1962 0 0 C 2657.17 1614.52 t 0 r /Helvetica findfont 66.5526 sf 0 0 m (  70.97) show NC gr 
 gsave  2948 1962 0 0 C 2326.87 1533.17 t 0 r /Helvetica findfont 66.5526 sf 0 0 m (RMS   ) show NC gr 
 gsave  2948 1962 0 0 C 2639.92 1535.64 t 0 r /Helvetica findfont 66.5526 sf 0 0 m ( 0.1232) show NC gr  295 196 m 2358 X s 303 243 m -47 Y s 359 220 m -24 Y s 414 220 m -24 Y s 470 220 m -24 Y s 526 220 m -24 Y s 582 243 m -47 Y s 637 220 m -24 Y s
 693 220 m -24 Y s 749 220 m -24 Y s 805 220 m -24 Y s 860 243 m -47 Y s 916 220 m -24 Y s 972 220 m -24 Y s 1028 220 m -24 Y s 1084 220 m -24 Y s 1139 243 m -47 Y s 1195 220 m -24 Y s 1251 220 m -24 Y s 1307 220 m -24 Y s 1362 220 m -24 Y s 1418 243
 m -47 Y s 1474 220 m -24 Y s 1530 220 m -24 Y s 1585 220 m -24 Y s 1641 220 m -24 Y s 1697 243 m -47 Y s 1753 220 m -24 Y s 1808 220 m -24 Y s 1864 220 m -24 Y s 1920 220 m -24 Y s 1976 243 m -47 Y s 2031 220 m -24 Y s 2087 220 m -24 Y s 2143 220 m
 -24 Y s 2199 220 m -24 Y s 2254 243 m -47 Y s 2310 220 m -24 Y s 2366 220 m -24 Y s 2422 220 m -24 Y s 2477 220 m -24 Y s 2533 243 m -47 Y s 303 243 m -47 Y s 2533 243 m -47 Y s 2589 220 m -24 Y s 2645 220 m -24 Y s
 gsave  2948 1962 0 0 C 266.21 133.105 t 0 r /Helvetica findfont 64.0876 sf 0 0 m (69) show NC gr 
 gsave  2948 1962 0 0 C 520.096 133.105 t 0 r /Helvetica findfont 64.0876 sf 0 0 m (69.5) show NC gr 
 gsave  2948 1962 0 0 C 825.745 133.105 t 0 r /Helvetica findfont 64.0876 sf 0 0 m (70) show NC gr 
 gsave  2948 1962 0 0 C 1077.17 133.105 t 0 r /Helvetica findfont 64.0876 sf 0 0 m (70.5) show NC gr 
 gsave  2948 1962 0 0 C 1387.74 133.105 t 0 r /Helvetica findfont 64.0876 sf 0 0 m (71) show NC gr 
 gsave  2948 1962 0 0 C 1634.23 133.105 t 0 r /Helvetica findfont 64.0876 sf 0 0 m (71.5) show NC gr 
 gsave  2948 1962 0 0 C 1939.88 133.105 t 0 r /Helvetica findfont 64.0876 sf 0 0 m (72) show NC gr 
 gsave  2948 1962 0 0 C 2191.3 133.105 t 0 r /Helvetica findfont 64.0876 sf 0 0 m (72.5) show NC gr 
 gsave  2948 1962 0 0 C 2496.95 133.105 t 0 r /Helvetica findfont 64.0876 sf 0 0 m (73) show NC gr  295 196 m 1570 Y s 366 196 m -71 X s 330 231 m -35 X s 330 267 m -35 X s 330 302 m -35 X s 330 337 m -35 X s 366 372 m -71 X s 330 408 m -35 X s 330
 443 m -35 X s 330 478 m -35 X s 330 514 m -35 X s 366 549 m -71 X s 330 584 m -35 X s 330 619 m -35 X s 330 655 m -35 X s 330 690 m -35 X s 366 725 m -71 X s 330 760 m -35 X s 330 796 m -35 X s 330 831 m -35 X s 330 866 m -35 X s 366 901 m -71 X s
 330 937 m -35 X s 330 972 m -35 X s 330 1007 m -35 X s 330 1042 m -35 X s 366 1078 m -71 X s 330 1113 m -35 X s 330 1148 m -35 X s 330 1183 m -35 X s 330 1219 m -35 X s 366 1254 m -71 X s 330 1289 m -35 X s 330 1324 m -35 X s 330 1360 m -35 X s 330
 1395 m -35 X s 366 1430 m -71 X s 330 1465 m -35 X s 330 1501 m -35 X s 330 1536 m -35 X s 330 1571 m -35 X s 366 1606 m -71 X s 366 1606 m -71 X s 330 1642 m -35 X s 330 1677 m -35 X s 330 1712 m -35 X s 330 1748 m -35 X s
 gsave  2948 1962 0 0 C 244.026 172.544 t 0 r /Helvetica findfont 64.0876 sf 0 0 m (0) show NC gr 
 gsave  2948 1962 0 0 C 209.517 350.017 t 0 r /Helvetica findfont 64.0876 sf 0 0 m (50) show NC gr 
 gsave  2948 1962 0 0 C 172.544 525.026 t 0 r /Helvetica findfont 64.0876 sf 0 0 m (100) show NC gr 
 gsave  2948 1962 0 0 C 172.544 702.499 t 0 r /Helvetica findfont 64.0876 sf 0 0 m (150) show NC gr 
 gsave  2948 1962 0 0 C 172.544 877.508 t 0 r /Helvetica findfont 64.0876 sf 0 0 m (200) show NC gr 
 gsave  2948 1962 0 0 C 172.544 1054.98 t 0 r /Helvetica findfont 64.0876 sf 0 0 m (250) show NC gr 
 gsave  2948 1962 0 0 C 172.544 1229.99 t 0 r /Helvetica findfont 64.0876 sf 0 0 m (300) show NC gr 
 gsave  2948 1962 0 0 C 172.544 1407.46 t 0 r /Helvetica findfont 64.0876 sf 0 0 m (350) show NC gr 
 gsave  2948 1962 0 0 C 172.544 1582.47 t 0 r /Helvetica findfont 64.0876 sf 0 0 m (400) show NC gr  1 1 1 c 590 314 2299 1521 bf black 2299 1521 m 590 X s 2889 1521 m 314 Y s 2889 1835 m -590 X s 2299 1835 m -314 Y s 1 1 1 c black
 gsave  2948 1962 0 0 C 2321.94 1784.59 t 0 r /Helvetica findfont 39.4385 sf 0 0 m (tdiffhistos_0.250000_0.750000) show NC gr  2299 1756 m 590 X s
 gsave  2948 1962 0 0 C 2326.87 1693.39 t 0 r /Helvetica findfont 66.5526 sf 0 0 m (Entries ) show NC gr 
 gsave  2948 1962 0 0 C 2694.15 1693.39 t 0 r /Helvetica findfont 66.5526 sf 0 0 m ( 8040) show NC gr 
 gsave  2948 1962 0 0 C 2326.87 1614.52 t 0 r /Helvetica findfont 66.5526 sf 0 0 m (Mean  ) show NC gr 
 gsave  2948 1962 0 0 C 2657.17 1614.52 t 0 r /Helvetica findfont 66.5526 sf 0 0 m (  70.97) show NC gr 
 gsave  2948 1962 0 0 C 2326.87 1533.17 t 0 r /Helvetica findfont 66.5526 sf 0 0 m (RMS   ) show NC gr 
 gsave  2948 1962 0 0 C 2639.92 1535.64 t 0 r /Helvetica findfont 66.5526 sf 0 0 m ( 0.1232) show NC gr  1 1 1 c black
 gsave  2948 1962 0 0 C 850.394 1868.4 t 0 r /Helvetica findfont 91.2016 sf 0 0 m (tdiffhistos_0.250000_0.750000) show NC gr  gr showpage
 gr 
%%Trailer
%%Pages:  1
 gr  gr  gr 
%%EOF
